<?xml version="1.0" encoding="UTF-8" standalone="no"?>
<!-- Created with Inkscape (http://www.inkscape.org/) -->
<svg
   xmlns:svg="http://www.w3.org/2000/svg"
   xmlns="http://www.w3.org/2000/svg"
   version="1.0"
   width="2592"
   height="3888"
   id="svg2210">
  <defs
     id="defs2213" />
  <g
     transform="translate(-30.857143,-10.285714)"
     id="g2219">
    <path
       d="M 1464.9167,3344.5956 C 1464.6875,3344.3732 1442,3343.6769 1414.5,3343.0482 C 1377.8587,3342.2105 1360.0916,3341.3917 1348,3339.9833 C 1329.609,3337.8413 1305.8968,3335.3645 1296,3334.5517 C 1292.425,3334.2581 1284.55,3333.5562 1278.5,3332.9918 C 1272.45,3332.4274 1258.5,3331.3179 1247.5,3330.5262 C 1236.5,3329.7345 1218.275,3328.4049 1207,3327.5715 C 1147.7606,3323.1926 1131.5046,3322.3763 1076.067,3320.9965 C 1042.8228,3320.1691 1035.222,3319.7203 1033.317,3318.472 C 1032.0426,3317.6371 1031,3316.32 1031,3315.5452 C 1031,3314.0262 1034.9686,3302.9208 1040.6648,3288.5 C 1055.717,3250.3927 1080.3701,3180.6923 1092.8355,3141 C 1098.6069,3122.6231 1114.8658,3064.3945 1117.9659,3051 C 1119.1752,3045.775 1122.9923,3029.575 1126.4482,3015 C 1129.9042,3000.425 1133.6984,2984 1134.8797,2978.5 C 1136.0611,2973 1139.463,2957.475 1142.4395,2944 C 1148.3016,2917.4619 1157.9192,2869.2695 1160.4005,2854 C 1161.2496,2848.775 1163.0753,2837.3 1164.4577,2828.5 C 1169.6685,2795.3281 1172.1378,2779.8733 1175.5622,2759 C 1177.5022,2747.175 1179.9467,2731.875 1180.9944,2725 C 1182.0422,2718.125 1184.5428,2703.05 1186.5514,2691.5 C 1189.9857,2671.752 1191.5529,2662.1869 1194.0885,2645.5 C 1194.6735,2641.65 1195.5201,2636.25 1195.9699,2633.5 C 1203.5943,2586.8859 1211.4497,2541.7654 1214.5985,2526.5 C 1215.9599,2519.9 1218.6064,2506.85 1220.4797,2497.5 C 1227.473,2462.595 1230.185,2450.0844 1234.1363,2434.5 C 1238.1426,2418.6986 1239.5894,2412.5081 1242.6262,2398.1724 C 1243.8704,2392.299 1243.9409,2390.2715 1242.9816,2387.9557 C 1241.048,2383.2874 1214.2002,2359.4542 1156.9385,2311.5738 C 1145.1473,2301.7144 1131.417,2290.0144 1126.4266,2285.5738 C 1121.4363,2281.1332 1113.3722,2274.125 1108.5065,2270 C 1103.6408,2265.875 1097.356,2260.475 1094.5404,2258 C 1091.7247,2255.525 1085.4101,2250.125 1080.5078,2246 C 1075.6056,2241.875 1069.5484,2236.6741 1067.0473,2234.4425 C 1063.0667,2230.8907 1042.2327,2213.57 1027.5064,2201.5693 C 1021.9887,2197.073 1004.802,2182.5822 992.67284,2172.1999 C 977.85118,2159.5128 961.58998,2144.446 939.57269,2123 C 927.43271,2111.175 911.4632,2096.1 904.08488,2089.5 C 891.46998,2078.2158 873.50817,2060.3813 865.89265,2051.5784 C 864.02669,2049.4215 860.83123,2046.4465 858.79163,2044.9672 C 856.75203,2043.488 850.45203,2036.9727 844.79163,2030.4889 C 839.13123,2024.005 829.15294,2013.255 822.61765,2006.6 C 806.65036,1990.3402 802.58983,1985.3236 801.08703,1980 C 798.30364,1970.1399 792.37142,1957.0127 772.843,1917.5 C 763.88413,1899.3731 759.51564,1891.6301 750.66031,1878.1818 C 745.69623,1870.643 743.90065,1867.4479 733.2798,1847.2547 C 729.85869,1840.7502 724.74223,1831.6195 721.90988,1826.9642 C 719.07753,1822.3089 716.51092,1817.825 716.20631,1817 C 715.90169,1816.175 712.13066,1809.1132 707.82623,1801.3072 C 703.5218,1793.5011 700,1786.4136 700,1785.5572 C 700,1783.4781 702.18916,1783.5883 705.11514,1785.8146 C 706.42681,1786.8127 711.55,1790.017 716.5,1792.9353 C 730.95608,1801.458 743.56296,1809.6876 757.8524,1819.9296 C 765.19622,1825.1933 773.97122,1831.4366 777.3524,1833.8036 C 785.9652,1839.8328 799.31602,1851.542 816.65862,1868.2765 C 852.88818,1903.2358 867.2911,1916.3995 887,1932.5655 C 929.81537,1967.6844 943.10711,1978.3168 950.5,1983.3606 C 961.20706,1990.6656 969.78431,1996.8093 980.10161,2004.5639 C 997.73065,2017.8141 1009.4928,2025.7687 1017,2029.5179 C 1021.125,2031.5781 1026.3,2034.4628 1028.5,2035.9284 C 1030.7,2037.3941 1035.425,2040.1139 1039,2041.9724 C 1047.6926,2046.4914 1071.3658,2059.878 1088,2069.6807 C 1095.425,2074.0563 1105.55,2079.8504 1110.5,2082.5565 C 1115.45,2085.2626 1121.3,2088.5025 1123.5,2089.7565 C 1131.7001,2094.4303 1137.9588,2097.1344 1155.5,2103.5823 C 1177.7199,2111.7501 1202.5754,2120.0721 1214.5,2123.3364 C 1219.45,2124.6915 1230.7,2128.047 1239.5,2130.7932 C 1260.1318,2137.2315 1275.9085,2140.5276 1277.6468,2138.7627 C 1278.7072,2137.6861 1281.1242,2124.9367 1283.4732,2108.0287 C 1284.3049,2102.0421 1282.3492,2022.5049 1280.5095,1987.5 C 1279.7002,1972.1 1278.5661,1950.05 1277.9893,1938.5 C 1277.4125,1926.95 1276.4904,1914.125 1275.9401,1910 C 1275.3898,1905.875 1273.8073,1893.5506 1272.4235,1882.6125 C 1269.9296,1862.9006 1269.4394,1860.2092 1263.9346,1836 C 1262.3714,1829.125 1260.1829,1818.775 1259.0713,1813 C 1250.6306,1769.147 1245.1516,1746.6788 1239.3812,1732.2562 C 1230.6293,1710.3812 1213.7772,1675.8395 1200.958,1653.5 C 1199.6956,1651.3 1197.0238,1646.575 1195.0209,1643 C 1193.0179,1639.425 1187.3202,1629.75 1182.3595,1621.5 C 1177.3987,1613.25 1172.1835,1604.475 1170.7702,1602 C 1150.8211,1567.0654 1148.6734,1563.5419 1128.102,1532 C 1124.7438,1526.8509 1094.1071,1485.8014 1083.6951,1472.5 C 1077.2703,1464.2923 1044.6724,1427.7353 1014.5884,1395 C 1008.7756,1388.675 996.39094,1374.275 987.06686,1363 C 977.74278,1351.725 962.47097,1334.6417 953.12949,1325.0372 C 943.78802,1315.4327 936.38021,1307.1938 936.6677,1306.7287 C 937.93214,1304.6828 974.37134,1315.3285 991.56588,1322.7672 C 1002.8144,1327.6335 1026.0055,1340.5393 1036,1347.4946 C 1040.125,1350.3652 1045.4948,1353.7294 1047.9329,1354.9706 C 1050.3709,1356.2117 1059.4098,1363.8136 1068.0192,1371.8636 C 1102.4509,1404.0581 1122.7869,1423.6013 1128.3995,1429.8899 C 1131.6442,1433.5255 1146.2692,1449.1136 1160.8995,1464.5302 C 1175.5298,1479.9469 1193.35,1499.0383 1200.5,1506.9556 C 1207.65,1514.873 1216.2,1524.3357 1219.5,1527.9839 C 1222.8,1531.6321 1231.575,1541.3349 1239,1549.5456 C 1246.425,1557.7563 1256.55,1568.755 1261.5,1573.9871 C 1266.45,1579.2192 1276.1075,1589.8 1282.9611,1597.5 C 1294.9643,1610.9857 1334.4177,1651.0418 1352,1667.5936 C 1356.675,1671.9946 1362.75,1678.6599 1365.5,1682.4054 C 1380.8704,1703.3396 1385.7741,1709.9369 1388.2766,1713.048 L 1391.0532,1716.5 L 1393.2766,1713.8515 C 1394.4995,1712.3949 1397.2746,1708.3449 1399.4436,1704.8515 C 1402.8127,1699.4252 1406.5366,1694.221 1419.5024,1676.819 C 1436.625,1653.8381 1465.5876,1621.6994 1472.5169,1617.991 C 1476.8177,1615.6892 1479.0662,1619.2449 1485.8022,1639 C 1491.4563,1655.5822 1500.907,1681.8108 1503.0245,1686.7971 C 1505.456,1692.5227 1504.8647,1693.4471 1476.4359,1728.3665 C 1471.4507,1734.4899 1465.8533,1741.75 1463.9972,1744.5 C 1462.1411,1747.25 1459.4274,1751.075 1457.9668,1753 C 1443.9509,1771.4714 1415.5913,1810.0612 1410.6896,1817.3315 L 1407.8791,1821.5 L 1408.4855,1836.1597 C 1408.8191,1844.2225 1409.5309,1853.2225 1410.0675,1856.1597 C 1411.6098,1864.6025 1412.2721,1902.2776 1411.0932,1914.5 C 1410.5096,1920.55 1409.518,1935.4 1408.8897,1947.5 C 1407.3732,1976.7028 1408.5039,1991.2155 1413.4474,2006 C 1415.3784,2011.775 1417.5844,2017.625 1418.3497,2019 C 1419.1149,2020.375 1420.7255,2024.875 1421.9286,2029 C 1423.1318,2033.125 1425.3725,2040.325 1426.9079,2045 C 1428.4433,2049.675 1430.8905,2057.325 1432.3459,2062 C 1442.8839,2095.8481 1447.5994,2108.2803 1457.5697,2128.5 C 1463.2649,2140.05 1469.2471,2151.075 1470.8634,2153 L 1473.8021,2156.5 L 1479.151,2154.6221 C 1487.114,2151.8266 1516.0249,2137.5177 1536.8511,2126.0645 C 1546.9443,2120.5139 1565.1693,2111.0833 1577.3511,2105.1077 C 1598.5492,2094.7094 1604.5861,2091.9374 1622.5,2084.3769 C 1635.0187,2079.0934 1650.7714,2067.6122 1668.5032,2050.8481 C 1690.6258,2029.9328 1702.2787,2015.953 1711.0571,1999.7969 C 1713.7757,1994.7935 1716,1990.5341 1716,1990.3315 C 1716,1990.1289 1719.6474,1982.5402 1724.1054,1973.4677 C 1732.2021,1956.9898 1732.2168,1956.9688 1737.9251,1953.6232 C 1741.068,1951.7812 1745.4081,1949.7154 1747.5698,1949.0325 C 1749.7314,1948.3496 1753.075,1946.7845 1755,1945.5543 C 1756.925,1944.3242 1759.85,1942.9636 1761.5,1942.5308 C 1766.9024,1941.1136 1780.2963,1940.8475 1796.396,1941.8375 L 1812.2115,1942.81 L 1834.3558,1954.0316 C 1846.5351,1960.2035 1857.625,1966.023 1859,1966.9639 C 1860.375,1967.9047 1862.3605,1968.9867 1863.4122,1969.3681 C 1866.3291,1970.4261 1881.5856,1979.7957 1882.8269,1981.2914 C 1883.6532,1982.287 1883.0322,1984.0673 1880.2931,1988.5551 C 1875.4219,1996.5365 1860.9151,2022.1958 1854.4736,2034.224 C 1849.4844,2043.5405 1840.916,2056.8528 1833.0559,2067.5 C 1831.0257,2070.25 1825.3512,2078.125 1820.4458,2085 C 1815.5404,2091.875 1808.8208,2101.1733 1805.5134,2105.6629 C 1802.2061,2110.1525 1798.7028,2115.1025 1797.7283,2116.6629 C 1796.7539,2118.2233 1794.499,2121.525 1792.7175,2124 C 1766.7094,2160.1312 1760.0164,2169.9941 1760.0071,2172.203 C 1759.9924,2175.7288 1733.392,2204.2487 1722,2212.9528 C 1717.875,2216.1045 1713.375,2219.2775 1712,2220.0039 C 1710.625,2220.7303 1707.925,2222.5348 1706,2224.0138 C 1699.7052,2228.8503 1681.3075,2241.3924 1673.0154,2246.5 C 1668.5508,2249.25 1656.683,2256.9 1646.6425,2263.5 C 1636.6021,2270.1 1626.4639,2276.625 1624.1132,2278 C 1619.4577,2280.7232 1607.2499,2288.7192 1599.4293,2294.1678 C 1596.7182,2296.0565 1591.35,2299.3378 1587.5,2301.4594 C 1583.65,2303.5811 1575.325,2308.7009 1569,2312.8368 C 1550.2504,2325.0972 1551.9302,2324.0774 1535.5,2333.1748 C 1533.3,2334.393 1524.7969,2338.6252 1516.6042,2342.5797 C 1508.4115,2346.5342 1501.3172,2350.4688 1500.8391,2351.3231 C 1500.3389,2352.2168 1500.6003,2369.3575 1501.4545,2391.6882 C 1506.2506,2517.0676 1505.7745,2558.4427 1498.9828,2606.5 C 1497.3534,2618.029 1496.1285,2628.3007 1493.4973,2652.5 C 1492.1218,2665.15 1490.5476,2678.875 1489.999,2683 C 1488.0338,2697.777 1481.856,2760.7706 1481.0256,2774.5 C 1478.3193,2819.243 1475.9988,2869.3781 1475.0317,2904 C 1474.4249,2925.725 1473.4431,2960.825 1472.85,2982 C 1470.2767,3073.8761 1470.306,3169.9655 1472.9145,3193 C 1473.5062,3198.225 1474.4785,3208.125 1475.0752,3215 C 1476.7244,3234.0016 1477.8269,3245.132 1478.4429,3249 C 1478.7495,3250.925 1479.9376,3259.025 1481.0832,3267 C 1482.2288,3274.975 1483.5486,3283.975 1484.0162,3287 C 1484.4838,3290.025 1485.9841,3299.7 1487.3502,3308.5 C 1490.7302,3330.2727 1491.5857,3341.5894 1489.9962,3343.5046 C 1489.024,3344.676 1486.2181,3345 1477.0442,3345 C 1470.6032,3345 1465.1458,3344.818 1464.9167,3344.5956 z M 862.45747,2600.086 C 861.33408,2599.6086 850.98408,2598.0054 839.45747,2596.5235 C 818.78433,2593.8656 818.33719,2593.7571 806.5,2588.5311 C 792.98636,2582.565 770.06229,2571.6901 750.57314,2562 L 737.5,2555.5 L 729.22231,2538.7644 L 720.94461,2522.0289 L 722.99656,2518.2644 C 724.12513,2516.194 727.26068,2511.575 729.96444,2508 C 732.66821,2504.425 737.00601,2498.125 739.60401,2494 C 757.39127,2465.758 766.04693,2452.7425 770.44806,2447.6196 C 781.39428,2434.8783 815.70867,2407.6304 837.34374,2394.5 C 839.15622,2393.4 842.97139,2390.8125 845.82189,2388.75 C 848.6724,2386.6875 851.29937,2385 851.65961,2385 C 852.01985,2385 857.0813,2382.2124 862.90729,2378.8053 C 868.73328,2375.3981 878.225,2370.1594 884,2367.1635 C 889.775,2364.1677 895.69564,2361.0932 897.15698,2360.3314 C 900.52483,2358.5757 937.47692,2355.3798 965,2354.4637 C 987.07017,2353.7291 992.66565,2354.2705 1028,2360.5593 C 1058.9693,2366.0712 1063.5452,2367.3371 1088.3803,2377.2633 C 1095.4439,2380.0864 1096.7575,2381.0111 1098.6615,2384.5 C 1101.6466,2389.9699 1108.9705,2416.9827 1109.6912,2425.1809 C 1110.333,2432.4822 1109.9361,2433.5287 1092.5741,2470.3081 C 1089.5083,2476.8026 1087,2482.361 1087,2482.6601 C 1087,2484.5308 1070.3833,2520.4409 1067.7486,2524.2641 C 1065.4085,2527.6597 1043.3824,2544.2176 1028.5,2553.7688 C 1022.45,2557.6516 1014.8,2562.579 1011.5,2564.7186 C 1003.5304,2569.8858 974.82168,2581.0149 956.5,2586.0397 C 952.1,2587.2464 944.675,2589.4743 940,2590.9905 C 928.97267,2594.567 916.00809,2596.7144 893.61688,2598.6733 C 867.96599,2600.9174 864.7562,2601.0629 862.45747,2600.086 z M 1898,2589.9836 C 1877.9345,2588.1504 1835.1262,2582.4672 1830.5679,2581.0314 C 1798.5898,2570.9585 1765.7768,2559.097 1752.5,2552.811 C 1742.3042,2547.9837 1726.3494,2538.9348 1721.5814,2535.2752 C 1716.5648,2531.4247 1708.9043,2521.0193 1695.5,2499.8482 C 1691.65,2493.7674 1687.4927,2487.5426 1686.2615,2486.0154 C 1685.0303,2484.4881 1682.3303,2480.5283 1680.2615,2477.2158 C 1678.1927,2473.9032 1674.429,2468.112 1671.8978,2464.3465 C 1666.9184,2456.939 1655.2823,2438.1927 1651.2705,2431.115 C 1649.9035,2428.7033 1646.8666,2423.7533 1644.5218,2420.115 C 1639.3632,2412.1105 1635,2403.6099 1635,2401.564 C 1635,2398.7214 1662.6315,2383.0305 1701.4125,2363.8507 C 1728.1455,2350.6295 1731.1837,2349.5011 1761.5,2341.5336 C 1766.45,2340.2327 1777.925,2337.0929 1787,2334.5563 C 1828.5353,2322.9465 1825.0963,2323.613 1862.5,2319.9235 C 1874.05,2318.7842 1888.225,2317.3716 1894,2316.7845 C 1906.765,2315.4866 1915.022,2316.4425 1940,2322.11 C 1949.625,2324.2939 1958.625,2326.3151 1960,2326.6017 C 1963.6668,2327.366 1987.6043,2340.9514 2004.5,2351.8572 C 2014.5809,2358.3642 2027.4231,2368.3286 2035.5117,2375.9196 C 2039.3681,2379.5388 2048.1302,2387.45 2054.983,2393.5 C 2071.1518,2407.7747 2086.6117,2423.198 2101.5932,2440 C 2113.152,2452.9634 2124.9765,2466.5775 2127.8792,2470.2645 C 2129.515,2472.3422 2127.7455,2474.4038 2107.9355,2493.5 C 2085.4655,2515.1603 2070.7978,2525.8754 2039.5,2543.4934 C 2007.9644,2561.2454 1980.6616,2572.8186 1947.1321,2582.6468 C 1936.8391,2585.6639 1910.9086,2591.0601 1907.7887,2590.8344 C 1906.5299,2590.7433 1902.125,2590.3604 1898,2589.9836 z M 570,2250.3216 C 560.67148,2249.3665 529.66154,2245.8359 523.15266,2244.9878 C 514.27591,2243.8311 483.01704,2238.1286 481.95479,2237.4721 C 481.53841,2237.2147 477.86852,2236.3672 473.79949,2235.5887 C 468.19299,2234.516 460.47972,2231.3343 441.95063,2222.4512 C 428.50278,2216.0042 417.05,2210.408 416.5,2210.0153 C 415.95,2209.6226 407.4,2205.1213 397.5,2200.0124 C 373.59428,2187.6759 369,2185.0335 369,2183.6208 C 369,2180.8813 388.34941,2154.3407 400.42419,2140.5179 C 421.71363,2116.1464 434.26847,2104.0392 458,2084.9948 C 463.775,2080.3604 470.33315,2074.9782 472.57368,2073.0343 C 480.87392,2065.833 497.35035,2052.6007 503.33059,2048.3332 C 523.27086,2034.104 526.49771,2032.4001 545.33334,2026.1534 C 573.14753,2016.929 575.60317,2016.5814 603.2899,2017.9501 C 616.05545,2018.5811 628.96153,2019.578 631.97008,2020.1653 C 638.1303,2021.3679 648.56633,2025.7807 670.5,2036.4575 C 678.75,2040.4734 692.02278,2046.839 699.99507,2050.6032 C 722.99177,2061.4613 738.17903,2070.5837 749.59078,2080.3932 C 753.49812,2083.7519 761.2893,2090.2632 766.90452,2094.8626 C 773.69634,2100.4259 779.13191,2105.9493 783.14204,2111.3626 L 789.17009,2119.5 L 788.59215,2126 C 788.27429,2129.575 788.01102,2136.5922 788.00711,2141.5937 C 788.0001,2150.5599 787.9431,2150.7722 783.94335,2156.7288 C 779.61885,2163.169 775.47204,2167.3533 759.33955,2181.5554 C 741.74397,2197.0454 738.89962,2199.0382 723.01446,2207.005 C 707.67435,2214.6985 678.68375,2230.2319 676.58485,2231.8823 C 674.79678,2233.2883 623.14454,2245.821 614.30704,2246.9931 C 609.80092,2247.5907 603.59146,2248.7368 600.50825,2249.5399 C 595.32366,2250.8903 579.51198,2251.2954 570,2250.3216 z M 2166.5,2033.394 C 2163.75,2033.1842 2154.9687,2032.5681 2146.9859,2032.025 C 2139.0032,2031.4818 2126.8532,2030.3178 2119.9859,2029.4382 C 2107.2424,2027.806 2079.7427,2022.577 2077.8943,2021.4347 C 2077.3317,2021.0869 2071.3993,2019.5107 2064.7112,2017.9318 C 2052.9088,2015.1457 2052.1827,2014.8145 2040.0256,2006.6716 C 2033.1365,2002.0573 2024.125,1996.0345 2020,1993.2876 C 1978.8053,1965.8553 1980.2263,1967.0265 1952.9169,1938 C 1931.2084,1914.9266 1928.863,1912.2845 1921.6338,1902.7591 C 1914.0357,1892.7476 1913.9769,1892.4383 1916.9235,1877.9547 C 1917.9814,1872.7546 1919.6063,1864.45 1920.5345,1859.5 C 1922.7654,1847.6023 1923.9708,1844.9506 1928.989,1840.903 C 1931.3094,1839.0313 1936.3901,1834.8 1940.2796,1831.5 C 1944.169,1828.2 1949.8598,1823.4643 1952.9257,1820.9763 C 1958.3444,1816.5789 1986.6534,1796.0132 1991.4354,1793 C 1992.7447,1792.175 1998.2449,1788.5076 2003.658,1784.8503 C 2024.6381,1770.6753 2039.4895,1764.4083 2063.9896,1759.3917 C 2078.1288,1756.4966 2089.7307,1756.4921 2113,1759.3729 C 2126.4472,1761.0377 2128.4409,1761.5212 2155,1769.5577 C 2164.625,1772.4702 2177.225,1776.2416 2183,1777.9387 C 2198.742,1782.5647 2226.9625,1794.9469 2236.4078,1801.3722 C 2239.6571,1803.5826 2247.3626,1810.5906 2253.5311,1816.9456 C 2268.4804,1832.3465 2306.6245,1875.3732 2308.4387,1878.8815 C 2310.8098,1883.4666 2312.3128,1902.0541 2311.6937,1919.1352 L 2311.127,1934.7704 L 2299.9352,1956.6352 C 2293.7797,1968.6608 2287.8123,1980.075 2286.6742,1982 C 2280.5693,1992.3262 2263.1014,2017.6113 2256.9452,2025.0334 L 2253.3904,2029.3191 L 2230.9452,2031.0968 C 2207.9719,2032.9163 2175.4382,2034.076 2166.5,2033.394 z M 197.5,1934.5439 C 162.4981,1927.6783 141.12754,1921.8405 136.28536,1917.8219 C 133.65929,1915.6424 134.83566,1911.5295 143.95688,1891 C 157.0061,1861.6296 165.18561,1846.9125 185.91845,1815.5 C 199.29239,1795.237 218.16443,1773.951 235.49677,1759.58 C 251.89025,1745.9875 254.71316,1743.8633 264,1738.1319 C 268.675,1735.2467 273.625,1732.0562 275,1731.0421 C 279.35005,1727.8335 295.83165,1717.1384 298.75872,1715.6248 C 303.56253,1713.1406 328.05001,1705.1798 337.5,1703.03 C 342.45,1701.9039 353.7,1699.3617 362.5,1697.3806 L 378.5,1693.7786 L 408,1694.4056 C 446.36102,1695.2208 505.73597,1699.9722 522.87439,1703.5982 C 527.644,1704.6073 525.0273,1713.0689 510.04113,1745.0971 C 505.25519,1755.3256 498.94731,1767.9256 496.0236,1773.0971 C 493.0999,1778.2687 488.83165,1785.875 486.53861,1790 C 480.78627,1800.348 469.48451,1818.4168 464.75891,1824.8206 C 458.676,1833.0637 420.61484,1870.4962 411.87245,1876.8336 C 386.06115,1895.5443 378.70625,1900.2019 363.10271,1907.7179 C 343.73083,1917.049 332.93474,1921.596 326.8493,1922.9868 C 323.90718,1923.6592 318.8,1925.0424 315.5,1926.0606 C 312.2,1927.0788 305.9,1928.3929 301.5,1928.9808 C 297.1,1929.5687 291.025,1930.4819 288,1931.0103 C 266.05144,1934.844 210.15617,1937.0264 197.5,1934.5439 z M 1613,1860.5207 C 1608.875,1859.8601 1602.358,1858.3301 1598.5178,1857.1207 C 1591.1889,1854.8124 1589.027,1853.8071 1542.5,1831.0726 C 1492.9671,1806.8692 1483.1578,1801.895 1481.8481,1800.317 C 1480.0527,1798.1537 1487.5508,1783.7198 1500.4423,1764.523 C 1515.3867,1742.2692 1534.1454,1723.8104 1567,1699.0294 C 1573.875,1693.8439 1584.0991,1686.0944 1589.7203,1681.8084 C 1601.5721,1672.7716 1620.244,1660.4303 1628.0452,1656.4771 C 1636.0085,1652.4418 1642.8755,1650.2898 1655.3523,1647.9196 C 1665.5387,1645.9845 1669.7767,1645.8086 1704.5,1645.8793 C 1725.4,1645.9219 1748.8,1646.258 1756.5,1646.6262 C 1770.4864,1647.2949 1770.5151,1647.3013 1786,1653.171 C 1794.525,1656.4026 1804.65,1660.3742 1808.5,1661.997 C 1812.35,1663.6198 1820.0941,1666.7547 1825.709,1668.9635 C 1831.324,1671.1724 1839.8137,1674.8046 1844.5751,1677.0352 C 1849.3365,1679.2658 1858.4675,1683.3017 1864.8661,1686.0038 C 1893.3206,1698.0203 1904.5,1703.5727 1904.5,1705.6885 C 1904.5,1708.0351 1883.2748,1732.7505 1869.0124,1747.0115 C 1858.7757,1757.2472 1833.3566,1779.7514 1821.0203,1789.5 C 1816.8444,1792.8 1808.1552,1798.875 1801.7111,1803 C 1760.145,1829.6072 1752.2563,1834.2544 1724.6086,1848.4198 C 1708.13,1856.8627 1707.4825,1857.0971 1698.1086,1858.0152 C 1692.8239,1858.5328 1682.2,1859.6363 1674.5,1860.4674 C 1657.9937,1862.2491 1623.9769,1862.2786 1613,1860.5207 z M 1052.5,1850.4535 C 1051.4,1850.2049 1045.1,1849.0308 1038.5,1847.8446 C 1031.9,1846.6583 1020.2,1844.1412 1012.5,1842.2509 C 1004.8,1840.3607 996.01419,1838.258 992.97597,1837.5782 C 989.93775,1836.8984 986.33775,1835.6238 984.97597,1834.7458 C 983.61419,1833.8678 979.8,1832.2474 976.5,1831.145 C 966.47605,1827.7965 953.64027,1822.9432 952.53905,1822.0853 C 951.96757,1821.64 950.25014,1820.9771 948.72254,1820.6119 C 947.19494,1820.2468 943.59494,1818.876 940.72254,1817.5656 C 937.85014,1816.2553 930.775,1813.0746 925,1810.4975 C 909.55643,1803.6058 880.69074,1788.9625 877.44116,1786.3714 C 874.9276,1784.3671 874.74739,1783.8498 875.77619,1781.5919 C 877.88962,1776.9534 908.02055,1738.1031 915.91371,1729.8392 C 916.78617,1728.9258 923.79289,1721.2758 931.48419,1712.8392 C 953.44812,1688.7471 956.35197,1686.441 979,1675.1057 C 989.725,1669.7379 1001.875,1664.3531 1006,1663.1395 C 1016.1491,1660.1537 1034.8461,1654.4072 1044,1651.4604 C 1055.6772,1647.7013 1065.3212,1645.9449 1068.8025,1646.9434 C 1076.6905,1649.2056 1118.1055,1669.2905 1129.2708,1676.2685 C 1153.219,1691.2353 1156.6264,1693.84 1175.247,1711.4135 C 1187.6231,1723.0937 1202,1738.9879 1202,1740.9899 C 1202,1741.6416 1199.8625,1745.5019 1197.25,1749.5683 C 1194.6375,1753.6347 1190.5324,1760.4579 1188.1277,1764.7309 C 1172.7551,1792.046 1170.7782,1794.434 1148.5822,1812.5 C 1143.1763,1816.9 1134.1848,1824.3293 1128.601,1829.0095 C 1117.9367,1837.9482 1117.6502,1838.0848 1094,1845.5029 C 1082.5109,1849.1065 1058.9663,1851.9152 1052.5,1850.4535 z M 680.47698,1674.077 C 676.06433,1673.6524 670.88933,1672.8057 668.97698,1672.1954 C 667.06464,1671.5852 660.89358,1670.5947 655.26352,1669.9943 C 649.63346,1669.3939 641.53346,1667.8316 637.26352,1666.5226 C 626.66887,1663.2746 602.68444,1653.914 594.02008,1649.6456 C 580.6676,1643.0676 565.84147,1630.1968 549,1610.563 C 544.325,1605.1128 536.85383,1596.7875 532.39741,1592.0622 C 527.94099,1587.3369 523.60363,1582.1274 522.75884,1580.4854 C 520.51599,1576.1261 513.83782,1558.0306 510.21649,1546.5 C 501.06755,1517.3691 500.93878,1516.7928 503.25,1515.3232 C 504.93543,1514.2515 514.45196,1510.2789 520,1508.3311 C 522.475,1507.4621 527.4393,1505.1197 531.03178,1503.1256 C 565.16744,1484.178 573.84618,1483.261 619,1493.8312 C 639.64673,1498.6644 655.06673,1505.4625 669.7073,1516.1859 C 672.57132,1518.2837 675.31668,1520 675.80811,1520 C 677.06143,1520 691.83143,1530.595 695.72757,1534.2888 C 698.87908,1537.2767 699.64249,1539.0943 703.79679,1553.5 C 717.96309,1602.6239 720.03404,1609 721.82331,1609 C 722.88616,1609 723.73574,1607.1377 731.10264,1588.6596 C 736.18114,1575.9214 737.90321,1572.7604 743.25962,1566.3443 C 752.26263,1555.5603 756.9429,1549.0198 765.19188,1535.695 C 776.68757,1517.1256 783.28383,1509.5907 798.77198,1497.3365 C 824.97548,1476.6042 833.82271,1470.7075 851.95148,1461.8926 C 856.26076,1459.7973 857.60692,1459.7245 894.08978,1459.6141 L 931.77659,1459.5 L 946.63829,1466.845 C 954.81223,1470.8847 968.025,1477.4097 976,1481.345 C 993.17408,1489.8195 992.63203,1488.4979 985.90674,1505.5 C 981.34448,1517.0338 980.22389,1518.671 963.59517,1538.0971 C 947.11317,1557.3519 942.2834,1561.9037 917.5,1581.5395 C 915.3,1583.2825 905.175,1590.3165 895,1597.1705 C 884.825,1604.0246 872.675,1612.3275 868,1615.6215 C 863.1274,1619.0548 855.44585,1623.2424 850,1625.4344 C 844.775,1627.5375 835.37932,1631.4963 829.12071,1634.2317 C 818.11777,1639.0408 817.52597,1639.1822 811.22732,1638.5077 C 807.64456,1638.124 802.92117,1637.1778 800.73088,1636.4051 C 798.5406,1635.6323 795.56762,1634.9868 794.12427,1634.9708 C 792.68092,1634.9547 786.325,1633.3661 780,1631.4406 C 773.675,1629.5151 766.24503,1627.3119 763.48896,1626.5448 C 760.73289,1625.7776 753.75789,1623.5885 747.98896,1621.6801 C 735.42331,1617.5233 726.68263,1615.0001 724.84609,1614.9996 C 723.7425,1614.9993 723.56164,1619.9129 723.84216,1642.275 C 724.15986,1667.6007 724.05262,1669.7075 722.34216,1671.7421 C 720.62141,1673.789 719.4455,1673.9636 704.5,1674.3913 C 695.7,1674.6431 684.88964,1674.5017 680.47698,1674.077 z M 1432.5333,1535.9607 C 1430.9016,1535.4637 1424.3766,1534.3414 1418.0333,1533.4668 C 1373.5587,1527.3345 1367.0321,1525.7875 1349,1517.1038 C 1336.9091,1511.2812 1328.0307,1505.8002 1318.0548,1498 C 1314.1859,1494.975 1309.4037,1491.375 1307.4275,1490 C 1299.7621,1484.6664 1291.1334,1477.2245 1282.5,1468.5007 C 1275.3183,1461.2439 1272.2878,1457.2033 1267.5,1448.5013 C 1264.2,1442.5034 1260.0039,1434.8744 1258.1753,1431.548 C 1256.3467,1428.2216 1250.9917,1418.129 1246.2753,1409.12 L 1237.6999,1392.74 L 1236.8811,1379.62 C 1233.1423,1319.7103 1231.9201,1294.9383 1232.6451,1293.7653 C 1233.3724,1292.5885 1241.6792,1293.5301 1249.1164,1295.6323 C 1252.0774,1296.4692 1256.975,1297.7253 1260,1298.4234 C 1266.713,1299.9727 1272.9322,1301.8002 1293,1308.1203 C 1308.5064,1313.0038 1310.0391,1313.7491 1338,1330.0038 C 1344.9139,1334.0232 1360.5829,1344.2024 1378.3089,1356.1901 C 1389.2077,1363.5607 1394.344,1368.7079 1414.1707,1392.1271 C 1422.0022,1401.3776 1421.6151,1400.314 1430.8682,1438 C 1437.7865,1466.1765 1437.879,1466.7327 1439.0207,1487 C 1439.6559,1498.275 1440.0235,1514.025 1439.8378,1522 C 1439.4635,1538.0688 1439.4622,1538.0712 1432.5333,1535.9607 z M 1646,1513.8522 C 1631.9205,1513.2414 1625.502,1512.5662 1622.9097,1511.4232 C 1620.935,1510.5526 1615.085,1508.779 1609.9097,1507.4818 C 1604.7344,1506.1847 1597.125,1504.2108 1593,1503.0954 C 1588.875,1501.98 1581.2393,1499.9147 1576.0318,1498.5058 C 1570.8243,1497.0968 1565.5905,1495.3065 1564.4011,1494.5272 C 1562.4469,1493.2467 1553.0315,1478.2206 1552.9778,1476.2966 C 1552.9655,1475.8585 1552.0755,1474.375 1551,1473 C 1547.3316,1468.3102 1548.2695,1466.3648 1560.6426,1453 C 1567.0075,1446.125 1574.8835,1436.9 1578.1449,1432.5 C 1613.078,1385.3706 1660.9057,1330.9396 1695.5548,1298.88 C 1711.5478,1284.0823 1717.0387,1279.9655 1733.1456,1270.6966 C 1747.3089,1262.5461 1757.1306,1257.814 1774.6029,1250.7223 C 1794.6587,1242.5821 1798.5278,1241.3853 1809,1240.0824 C 1813.675,1239.5008 1822.9,1238.1259 1829.5,1237.0273 C 1844.643,1234.5065 1870.3476,1230.329 1879.5,1228.9012 C 1883.35,1228.3006 1891.225,1226.918 1897,1225.8287 C 1911.1256,1223.1643 1935.9075,1220.1418 1950.0874,1219.3539 C 1960.8628,1218.7552 1961.7262,1218.8429 1962.4088,1220.6051 C 1963.864,1224.3622 1964.3239,1254.9964 1963.1024,1266.81 C 1959.3251,1303.3424 1956.4386,1317.4243 1946.6649,1347 C 1934.9345,1382.4971 1922.3322,1409.7895 1912.1752,1421.6934 C 1902.7788,1432.7059 1874.988,1459.9935 1867.9464,1465.1214 C 1856.9424,1473.1346 1783.1559,1503.6885 1769,1506.0936 C 1758.5959,1507.8612 1741.4682,1509.963 1725,1511.493 C 1715.925,1512.3362 1704.45,1513.4622 1699.5,1513.9952 C 1689.2038,1515.1041 1673.9114,1515.0632 1646,1513.8522 z M 1412.9754,1285.4704 C 1412.3546,1284.7223 1411.4716,1279.4729 1411.0133,1273.8051 C 1410.555,1268.1373 1409.2472,1257.4484 1408.107,1250.052 C 1403.7235,1221.6166 1404.6019,1199.4001 1410.8371,1181 C 1413.8833,1172.0109 1422.6171,1154.0186 1428.1777,1145.2773 C 1430.005,1142.4048 1432.5787,1138.2808 1433.897,1136.1128 C 1436.652,1131.5822 1445.7416,1124.0558 1456.9146,1117.0535 C 1468.1551,1110.0089 1474.2387,1107.1255 1496,1098.5279 C 1506.725,1094.2907 1516.4374,1090.2273 1517.5831,1089.4982 C 1520.6543,1087.5438 1525.543,1087.1088 1557.5,1085.9466 C 1573.45,1085.3666 1595.05,1084.5156 1605.5,1084.0556 C 1620.0376,1083.4156 1624.8039,1083.5057 1625.7938,1084.4391 C 1628.6113,1087.0957 1618.4137,1133.014 1612.824,1142.8402 C 1607.337,1152.4858 1588.9495,1181.1152 1583.1773,1189 C 1572.7174,1203.2884 1571.3731,1204.4993 1557.9496,1211.7238 C 1553.7969,1213.9587 1546.5969,1218.2285 1541.9496,1221.212 C 1537.3023,1224.1956 1532.825,1226.963 1532,1227.3619 C 1531.175,1227.7607 1526.9,1230.3038 1522.5,1233.0132 C 1518.1,1235.7225 1511.8,1239.36 1508.5,1241.0963 C 1505.2,1242.8327 1501.3698,1245.0505 1499.9885,1246.0249 C 1495.6761,1249.0669 1462.7761,1266.1646 1451.5,1271.2238 C 1437.8532,1277.3466 1419.3218,1285.2436 1416.8021,1286.0099 C 1414.9137,1286.5843 1413.7655,1286.4224 1412.9754,1285.4704 z M 1109,1277.8448 C 1102.675,1277.3644 1093.6027,1276.3446 1088.8393,1275.5785 C 1079.5264,1274.0807 1076.481,1272.4635 1054.5,1257.3437 C 1049.55,1253.9388 1044.15,1250.2243 1042.5,1249.0893 C 1040.85,1247.9542 1035.225,1244.1836 1030,1240.7102 C 1024.775,1237.2368 1018.025,1232.6449 1015,1230.5058 C 1011.975,1228.3668 1006.2734,1224.9239 1002.3299,1222.8549 C 994.99771,1219.008 991.38777,1216.5819 978.85942,1207.0808 C 970.27678,1200.572 969.19769,1198.4989 956.95584,1165 C 945.44704,1133.5071 945.47075,1133.5809 942.62039,1120.3694 C 939.2053,1104.5404 935.71013,1054.4189 935.5515,1019 C 935.4857,1004.3067 937.67258,972.99139 939.01015,969.47329 C 939.98316,966.91409 940.2724,966.81376 944.74396,967.48431 C 947.33396,967.87271 951.03862,968.99501 952.97653,969.97831 C 954.91444,970.96162 960.325,973.13771 965,974.81408 C 969.675,976.49045 978,979.52719 983.5,981.5624 C 995.70586,986.07902 1022.0546,995 1023.1889,995 C 1023.9283,995 1028.8969,996.87101 1048.5,1004.5314 C 1054.8835,1007.0259 1062.7262,1010.4291 1072.5,1014.9457 C 1078.8144,1017.8636 1088.2649,1024.2318 1102.1537,1034.9275 C 1112.6282,1042.994 1130,1057.9703 1130,1058.9341 C 1130,1059.3329 1132.3853,1062.3234 1135.3006,1065.5796 C 1141.5493,1072.5589 1143.2276,1075.3676 1153.7768,1096.5 C 1182.1856,1153.4089 1185.899,1162.9753 1198.0634,1210.5889 C 1202.4146,1227.6203 1203.3841,1233.215 1204.7669,1249.2726 C 1206.2134,1266.0713 1206.2236,1268.205 1204.863,1269.5656 C 1203.9051,1270.5235 1199.857,1271.4624 1193.9213,1272.1034 C 1179.6545,1273.644 1179.4288,1273.6698 1165.5,1275.3484 C 1132.3951,1279.3381 1130.0356,1279.4423 1109,1277.8448 z M 1332.8307,1066.1638 C 1331.4804,1065.2487 1326.6356,1060.3067 1322.0645,1055.1815 C 1317.4935,1050.0563 1312.8735,1045.3313 1311.7979,1044.6815 C 1309.2165,1043.1219 1267.3264,997.99657 1254.1625,982.59482 C 1244.9143,971.77446 1237.6911,962.12775 1224.255,942.65286 C 1220.1224,936.66281 1213.7916,924.52659 1212.6992,920.5 C 1212.4008,919.4 1210.7803,914.91474 1209.0983,910.53275 C 1199.6726,885.97794 1195,858.37427 1195,827.24705 C 1195,820.13786 1198.8071,794.05786 1201.9699,779.5 C 1203.2987,773.38388 1204.7008,765.54558 1206.5312,754 C 1208.2102,743.40939 1209.288,740.07011 1215.7298,725.5 C 1223.1078,708.81233 1225.1296,704.8875 1226.6482,704.30475 C 1228.2113,703.70493 1230.5673,704.10243 1247.5,707.82284 C 1285.272,716.12201 1298.6578,719.96564 1320.7331,728.85111 C 1332.5666,733.61423 1350.4856,746.62333 1379.7651,771.70829 C 1394.1761,784.05476 1397.9529,787.87904 1402.6113,794.8421 C 1405.6809,799.43025 1408.6025,804.60525 1409.1037,806.3421 C 1410.0278,809.54479 1412.5139,847.5633 1413.6694,876.16382 C 1414.3562,893.16477 1414.3213,893.49223 1407.9626,929.60429 C 1404.5202,949.15486 1403.4807,953.14067 1398.9652,964.10429 C 1396.1573,970.92193 1392.1112,980.775 1389.974,986 C 1382.6904,1003.8062 1373.2043,1020.6229 1361.2055,1037 C 1352.8377,1048.4211 1337.8379,1066.8482 1336.4868,1067.3667 C 1335.8263,1067.6201 1334.1811,1067.0788 1332.8307,1066.1638 z "
       style="fill:#2b9158"
       id="path2225" />
    <path
       d="M 1452.5,3343.3578 C 1450.85,3343.1682 1429.925,3342.5853 1406,3342.0624 C 1379.1824,3341.4762 1357.898,3340.5359 1350.5,3339.6103 C 1328.5588,3336.8653 1300.7841,3334.0579 1275.5,3332.0295 C 1173.9959,3323.8861 1134.7057,3321.5469 1082,3320.509 C 1051.9196,3319.9167 1036.0541,3319.0392 1033.75,3317.8402 C 1030.6528,3316.2286 1029.7654,3319.0813 1049.4084,3267.5 C 1062.3049,3233.6348 1068.3566,3216.8454 1078.7849,3186 C 1092.4435,3145.5995 1096.102,3133.8271 1105.5106,3100 C 1108.6466,3088.725 1112.2414,3075.9 1113.4989,3071.5 C 1114.7565,3067.1 1116.5459,3060.125 1117.4754,3056 C 1118.4048,3051.875 1120.9485,3041.075 1123.1279,3032 C 1132.0772,2994.7356 1135.7032,2978.7779 1144.0328,2940 C 1146.8091,2927.075 1149.5024,2914.7 1150.0179,2912.5 C 1151.5776,2905.8437 1160.788,2857.028 1161.9989,2849 C 1162.6211,2844.875 1163.7882,2837.675 1164.5926,2833 C 1165.3969,2828.325 1166.9282,2818.65 1167.9954,2811.5 C 1170.8906,2792.1022 1175.659,2762.0735 1177.9994,2748.5 C 1179.1374,2741.9 1181.1619,2729.525 1182.4982,2721 C 1183.8346,2712.475 1186.3122,2697.4 1188.0041,2687.5 C 1191.2967,2668.2328 1193.355,2655.72 1195.0775,2644.5 C 1197.8442,2626.4775 1201.8402,2602.3163 1206.5719,2575 C 1212.6776,2539.7516 1213.6714,2534.411 1216.9926,2519 C 1218.5928,2511.575 1221.0067,2499.875 1222.3569,2493 C 1227.817,2465.198 1230.2935,2453.6761 1234.5498,2436.2722 C 1244.0845,2397.2853 1245.1914,2391.3939 1243.6672,2387.7459 C 1242.8445,2385.7769 1237.4981,2380.1771 1230.3948,2373.8442 C 1223.8527,2368.0117 1214.303,2359.4732 1209.1732,2354.8698 C 1204.0435,2350.2664 1196.6185,2343.8628 1192.6732,2340.6396 C 1188.728,2337.4164 1182.35,2331.9928 1178.5,2328.5871 C 1174.65,2325.1814 1167.675,2319.2855 1163,2315.4851 C 1148.4006,2303.6169 1138.935,2295.5305 1120.8773,2279.5 C 1117.1599,2276.2 1110.8647,2270.8 1106.8879,2267.5 C 1102.9111,2264.2 1096.8885,2259.025 1093.5044,2256 C 1090.1203,2252.975 1080.9081,2245.1 1073.0329,2238.5 C 1065.1576,2231.9 1055.2911,2223.572 1051.1071,2219.9934 C 1046.9232,2216.4148 1038.775,2209.6794 1033,2205.0258 C 1027.225,2200.3723 1019.3302,2193.8503 1015.4559,2190.5324 C 1011.5817,2187.2146 1002.3569,2179.325 994.95652,2173 C 987.5561,2166.675 978.35093,2158.5496 974.5006,2154.9435 C 970.65027,2151.3375 965.925,2147.1309 964,2145.5956 C 962.075,2144.0603 951.5,2133.9431 940.5,2123.113 C 929.5,2112.2828 911.95,2095.5099 901.5,2085.8398 C 891.05,2076.1697 877.07803,2062.6873 870.45119,2055.8789 C 863.82434,2049.0705 856.46812,2041.7 854.10403,2039.5 C 851.73994,2037.3 845.345,2030.2349 839.89305,2023.7998 C 834.4411,2017.3648 828.97232,2011.4028 827.74021,2010.551 C 826.50809,2009.6992 820.47554,2003.526 814.33453,1996.8328 C 804.31295,1985.91 802.99779,1984.0402 801.49729,1978.5816 C 798.66663,1968.2841 769.56625,1906.6838 761.77661,1894.5 C 752.31122,1879.6951 746.42799,1869.9645 744.24296,1865.5 C 742.89704,1862.75 741.17637,1859.8002 740.41925,1858.9448 C 739.66212,1858.0895 735.89422,1851.2118 732.04614,1843.6611 C 728.19805,1836.1103 723.7608,1828.0352 722.18556,1825.7162 C 720.61033,1823.3973 716.69568,1816.55 713.48633,1810.5 C 710.27698,1804.45 706.04826,1796.4939 704.08917,1792.8197 C 702.13008,1789.1456 700.82925,1785.8374 701.19843,1785.4682 C 701.89046,1784.7762 706.34196,1787.3017 725.82907,1799.4421 C 744.5555,1811.1085 746.0493,1812.1033 760.95922,1822.8377 C 768.85664,1828.5234 776.70908,1834.1473 778.40909,1835.3353 C 784.58884,1839.6537 796.88884,1850.6042 815,1867.9118 C 844.38208,1895.9902 863.72101,1913.9079 874.5,1923.0394 C 884.54375,1931.5479 886.18298,1932.9039 903.88383,1947.3456 C 909.17272,1951.6607 916.59788,1957.7357 920.38418,1960.8456 C 930.1969,1968.9054 946.81257,1981.6557 955.119,1987.5 C 959.02755,1990.25 966.78723,1995.8612 972.36273,1999.9693 C 995.27803,2016.8535 1007.7916,2025.4011 1016.8922,2030.3857 C 1043.7923,2045.1196 1060.0354,2054.2368 1075,2063.0013 C 1099.8396,2077.5496 1114.6604,2086 1115.3364,2086 C 1115.6697,2086 1119.4429,2088.0753 1123.7212,2090.6118 C 1135.233,2097.4367 1180.2302,2114.1069 1211.5,2123.1314 C 1219.2,2125.3536 1230,2128.6828 1235.5,2130.5295 C 1247.1402,2134.438 1263.0466,2138.5732 1271.2343,2139.8195 C 1275.9909,2140.5435 1277.1985,2140.4202 1278.3176,2139.0961 C 1279.0596,2138.2183 1280.7514,2131.425 1282.077,2124 C 1284.3182,2111.4475 1284.4657,2108.4997 1284.1786,2082 C 1283.8202,2048.9098 1282.5219,2006.4149 1281.0624,1980 C 1280.5002,1969.825 1279.5686,1952.0955 1278.9923,1940.6012 C 1278.0118,1921.0479 1276.0764,1901.5732 1272.5223,1875.5 C 1271.051,1864.7059 1269.869,1858.5106 1265.8444,1840.5 C 1262.6772,1826.326 1256.0062,1794.2463 1254.5111,1786 C 1249.4862,1758.2856 1243.646,1738.9498 1233.5195,1716.5 C 1232.031,1713.2 1229.9081,1708.475 1228.802,1706 C 1224.4981,1696.3697 1207.9554,1664.0471 1202.9561,1655.5 C 1200.0609,1650.55 1195.1357,1642 1192.0114,1636.5 C 1188.8872,1631 1184.8407,1624.025 1183.0193,1621 C 1178.2416,1613.065 1164.0169,1589.0253 1162.0133,1585.5 C 1156.1636,1575.2076 1149.4811,1563.8063 1146.7743,1559.5 C 1131.8714,1535.7908 1127.4992,1529.4028 1111.8682,1508.5 C 1081.3126,1467.6392 1079.1848,1464.9782 1063.5,1448.0092 C 1059.65,1443.844 1052.5021,1435.9505 1047.6158,1430.468 C 1031.1522,1411.9959 1014.5447,1393.6201 1007.4597,1386.0361 C 1003.5875,1381.8912 993.61531,1370.175 985.29923,1360 C 976.98315,1349.825 962.95325,1334.075 954.12169,1325 C 945.29013,1315.925 938.04983,1308.1625 938.03215,1307.75 C 937.98098,1306.5563 939.89147,1306.8425 950,1309.543 C 972.95403,1315.6752 995.1251,1324.0766 1008.5,1331.7107 C 1027.0972,1342.3255 1030.7523,1344.5343 1035.5414,1348.052 C 1038.3142,1350.0886 1042.9695,1352.9643 1045.8866,1354.4425 C 1051.857,1357.468 1054.0649,1359.4288 1090.9023,1394.4205 C 1112.4967,1414.9329 1160.491,1464.3804 1187,1493.4279 C 1190.025,1496.7426 1195.875,1503.1095 1200,1507.5766 C 1204.125,1512.0437 1212.675,1521.4801 1219,1528.5463 C 1235.5108,1546.992 1253.0002,1566.1043 1262.9134,1576.5346 C 1267.636,1581.5036 1278.3382,1593.2036 1286.6959,1602.5346 C 1300.9601,1618.4598 1334.3572,1652.3644 1345.5,1662.2322 C 1354.1465,1669.8893 1358.3786,1674.3263 1362.4473,1680 C 1364.6165,1683.025 1367.7658,1687.1214 1369.4457,1689.1031 C 1371.1256,1691.0848 1375.7331,1697.1598 1379.6846,1702.6031 C 1383.6361,1708.0464 1387.8434,1713.5417 1389.0341,1714.815 C 1391.0291,1716.9482 1391.3371,1717.0049 1392.9591,1715.537 C 1393.9271,1714.661 1396.6562,1710.6942 1399.0237,1706.7221 C 1402.7034,1700.5483 1406.4177,1695.3083 1419.5024,1677.832 C 1436.8953,1654.6017 1465.6378,1622.6725 1472.4283,1619.0384 C 1474.6713,1617.838 1475.2198,1617.8889 1476.9543,1619.4587 C 1478.0399,1620.4411 1479.5833,1623.1023 1480.3841,1625.3725 C 1481.1849,1627.6426 1484.4094,1636.925 1487.5498,1646 C 1490.6901,1655.075 1495.4511,1668.2765 1498.1297,1675.3366 C 1500.8084,1682.3967 1503,1689.4611 1503,1691.0352 C 1503,1693.1185 1500.7602,1696.7002 1494.7684,1704.1986 C 1490.241,1709.8644 1484.7285,1716.8015 1482.5184,1719.6145 C 1480.3083,1722.4275 1476.0466,1727.7784 1473.0479,1731.5055 C 1470.0493,1735.2326 1464.1993,1743.0585 1460.0479,1748.8965 C 1455.8966,1754.7344 1449.9241,1762.8835 1446.7759,1767.0055 C 1434.9368,1782.5062 1431.6791,1786.8863 1421.1201,1801.5 C 1406.1336,1822.2415 1406.5909,1821.1449 1407.3754,1834.4657 C 1407.7328,1840.5346 1408.7438,1851.8 1409.6221,1859.5 C 1411.4483,1875.5112 1411.0717,1916.3809 1408.9869,1928.4287 C 1408.1579,1933.2196 1407.9312,1944.4818 1408.2522,1964.9287 L 1408.7165,1994.5 L 1412.4146,2005.4085 C 1414.4485,2011.4082 1416.8184,2017.6819 1417.6811,2019.3501 C 1419.3704,2022.6169 1419.7018,2023.5995 1423.9709,2038 C 1425.5199,2043.225 1427.271,2048.85 1427.8622,2050.5 C 1428.4535,2052.15 1431.4266,2061.375 1434.4691,2071 C 1445.0792,2104.5649 1446.0348,2107.0129 1457.6955,2130.5 C 1465.6401,2146.5021 1469.0721,2152.5165 1471.8353,2155.2798 C 1473.8012,2157.2456 1474.2643,2157.3091 1477.7343,2156.0888 C 1487.7761,2152.5572 1534.061,2129.4665 1542,2124.0279 C 1545.5518,2121.5947 1593.7974,2097.4299 1602.358,2093.7964 C 1606.2861,2092.1291 1613.3123,2089.1782 1617.9717,2087.2389 C 1627.4771,2083.2826 1634.52,2079.596 1637.5,2077.017 C 1638.6,2076.065 1642.2129,2073.4726 1645.5286,2071.2561 C 1658.3256,2062.7017 1684.1337,2038.0299 1696.4413,2022.5851 C 1707.3801,2008.8579 1709.1592,2005.8884 1720.5746,1982.3058 C 1726.38,1970.3126 1732.3382,1959.2263 1733.8149,1957.6696 C 1735.2917,1956.1129 1738.975,1953.7119 1742,1952.3341 C 1745.025,1950.9562 1750.2,1948.5706 1753.5,1947.0327 C 1764.5861,1941.8662 1766.1255,1941.6665 1789.186,1942.4017 L 1810.5,1943.0812 L 1823,1949.132 C 1833.6032,1954.2646 1853.5625,1964.7189 1869.6504,1973.5666 C 1875.876,1976.9904 1881.7614,1980.8049 1882.3915,1981.8244 C 1882.6992,1982.3224 1879.8924,1987.8531 1876.154,1994.1149 C 1872.4156,2000.3767 1867.6236,2008.875 1865.505,2013 C 1863.3865,2017.125 1860.6945,2021.85 1859.5228,2023.5 C 1858.3511,2025.15 1855.4335,2030.325 1853.0394,2035 C 1850.6452,2039.675 1847.2944,2045.6167 1845.5932,2048.2038 C 1840.5516,2055.8705 1822.2753,2081.6637 1813.4974,2093.5 C 1809.0107,2099.55 1803.7079,2106.975 1801.7133,2110 C 1799.7186,2113.025 1797.0547,2116.808 1795.7933,2118.4067 C 1794.532,2120.0054 1792.375,2122.9785 1791,2125.0136 C 1788.5005,2128.713 1784.9956,2133.72 1780.7536,2139.6509 C 1761.9946,2165.8793 1761.098,2167.2358 1759.4685,2171.8561 C 1758.1992,2175.4552 1754.2356,2180.1477 1738.5,2196.6803 C 1728.5342,2207.1509 1722.2473,2212.4976 1711.934,2219.2731 C 1708.9453,2221.2366 1702.45,2225.7827 1697.5,2229.3756 C 1692.55,2232.9685 1686.475,2237.131 1684,2238.6255 C 1674.6403,2244.2772 1665.9435,2249.8504 1648.3184,2261.4914 C 1638.3185,2268.0961 1627.5185,2275.069 1624.3184,2276.9867 C 1621.1183,2278.9045 1612.3003,2284.642 1604.7229,2289.7367 C 1597.1455,2294.8315 1590.7111,2299 1590.4243,2299 C 1589.5373,2299 1572.6174,2309.2251 1570.5,2311.0407 C 1564.2672,2316.3853 1538.9621,2330.8348 1518,2341.0189 C 1509.475,2345.1606 1501.8681,2348.9452 1501.0958,2349.429 C 1499.5162,2350.4185 1499.8638,2376.7022 1502.1878,2432 C 1502.8697,2448.225 1503.4273,2483.775 1503.4268,2511 C 1503.426,2562.7179 1502.7505,2575.1062 1498.109,2608.5371 C 1495.3225,2628.6071 1491.219,2664.4281 1486.4286,2710.5 C 1482.1763,2751.3977 1481.0166,2764.6801 1479.5314,2789.5 C 1478.7416,2802.7 1477.6124,2821.375 1477.0221,2831 C 1476.4319,2840.625 1475.5216,2866.0979 1474.9994,2887.6064 C 1474.4771,2909.1149 1473.609,2938.1399 1473.0702,2952.1064 C 1470.3187,3023.4319 1469.568,3169.703 1471.8477,3190.3224 C 1472.4666,3195.9201 1473.6745,3208.15 1474.5321,3217.5 C 1476.7895,3242.1122 1478.7567,3258.1524 1481.9521,3278 C 1488.4242,3318.1997 1490.3413,3333.1738 1489.8259,3339.5 L 1489.5,3343.5 L 1472.5,3343.6013 C 1463.15,3343.657 1454.15,3343.5474 1452.5,3343.3578 z "
       style="fill:#5a4336"
       id="path2223" />
  </g>
</svg>
